module gitea.com/4fun/bosszhipin

go 1.12

require (
	github.com/PuerkitoBio/goquery v1.5.0 // indirect
	github.com/antchfx/htmlquery v1.0.0 // indirect
	github.com/antchfx/xmlquery v1.0.0 // indirect
	github.com/antchfx/xpath v1.0.0 // indirect
	github.com/gobwas/glob v0.2.3 // indirect
	github.com/gocolly/colly v1.2.0
	github.com/jinzhu/gorm v1.9.10
	github.com/kennygrant/sanitize v1.2.4 // indirect
	github.com/saintfish/chardet v0.0.0-20120816061221-3af4cd4741ca // indirect
	github.com/temoto/robotstxt v0.0.0-20180810133444-97ee4a9ee6ea // indirect
	golang.org/x/net v0.0.0-20190628185345-da137c7871d7 // indirect
	google.golang.org/appengine v1.6.1 // indirect
)
